Herring Selective Sweep
…
???

I could take the annotations parts maybe? (and more if needed)

---
# Even more annotation
.nowrap.tiny[

```r
annotated_positions %>% print(n = 5)
```

```
## # A tibble: 122 x 20
##       POS  FREQ ID    Annotation_ID Allele Annotation Annotation_Impa… Gene_Name
##     <dbl> <dbl> <chr>         <int> <chr>  <chr>      <chr>            <chr>    
## 1  1.11e7 0.629 Delt…             1 A      intron_va… MODIFIER         ENSCHAG0…
## 2  1.11e7 0.629 Delt…             2 A      intron_va… MODIFIER         ENSCHAG0…
## 3  1.11e7 0.629 Delt…             3 A      intron_va… MODIFIER         ENSCHAG0…
## 4  1.11e7 0.629 Delt…             4 A      intron_va… MODIFIER         ENSCHAG0…
## 5  1.11e7 0.629 Delt…             5 A      intron_va… MODIFIER         ENSCHAG0…
## # … with 117 more rows, and 12 more variables: Gene_ID <chr>,
## #   Feature_Type <chr>, Feature_ID <chr>, Transcript_BioType <chr>, Rank <chr>,
## #   HGVS.c <chr>, HGVS.p <chr>, cDNA.pos / cDNA.length <chr>,
## #   CDS.pos / CDS.length <chr>, AA.pos / AA.length <chr>, Distance <chr>,
## #   ERRORS / WARNINGS / INFO <chr>
```
…
```r
annotated_positions %>% 
  select(POS, Gene_ID) %>%
  unique()
```

```
## # A tibble: 44 x 2
##         POS Gene_ID           
##       <dbl> <chr>             
##  1 11149615 ENSCHAG00000025774
##  2 11171455 ENSCHAG00000025774
##  3 11172685 ENSCHAG00000025774
##  4 11172702 ENSCHAG00000025774
##  5 11173830 ENSCHAG00000025774
##  6 11175785 ENSCHAG00000025774
##  7 11179139 ENSCHAG00000025774
##  8 11181395 ENSCHAG00000025774
##  9 11204418 ENSCHAG00000025774
## 10 11220285 ENSCHAG00000025873
## # … with 34 more rows
```
…
